com\hackathon\rocky\controller\UserController.class
com\hackathon\rocky\dto\CouponDto.class
com\hackathon\rocky\entity\ContractTransaction.class
com\hackathon\rocky\Sequence\CustomGlobalExceptionHandler.class
com\hackathon\rocky\service\PartnerService.class
com\hackathon\rocky\entity\ARLocation.class
com\hackathon\rocky\entity\PointTransaction.class
com\hackathon\rocky\service\CouponTransactionService.class
com\hackathon\rocky\entity\Coupon.class
com\hackathon\rocky\service\Impl\CouponServiceImpl.class
com\hackathon\rocky\service\Impl\PointTransactionServiceImpl.class
com\hackathon\rocky\service\Impl\UserServiceImpl.class
com\hackathon\rocky\service\Impl\ARLocationServiceImpl.class
com\hackathon\rocky\service\ContractTransService.class
com\hackathon\rocky\controller\PointTransactionController.class
com\hackathon\rocky\dao\PartnerRepository.class
com\hackathon\rocky\service\UserService.class
com\hackathon\rocky\dto\CouponRequest.class
com\hackathon\rocky\service\CouponService.class
com\hackathon\rocky\dao\CouponTransactionRepository.class
com\hackathon\rocky\dao\ContractTransactionRepository.class
com\hackathon\rocky\service\Impl\ARTransactionServiceImpl.class
com\hackathon\rocky\service\PointTransactionService.class
com\hackathon\rocky\entity\User.class
com\hackathon\rocky\dao\ARLocationRepository.class
com\hackathon\rocky\MainApp.class
com\hackathon\rocky\dto\ContractTransactionDto.class
com\hackathon\rocky\Sequence\generatorId.class
com\hackathon\rocky\controller\CouponController.class
com\hackathon\rocky\service\Impl\PartnerServiceImpl.class
com\hackathon\rocky\entity\CouponTransaction.class
com\hackathon\rocky\controller\CouponTypeController.class
com\hackathon\rocky\entity\CouponType.class
com\hackathon\rocky\service\Impl\ContractTransServiceImpl.class
com\hackathon\rocky\entity\ARTransaction.class
com\hackathon\rocky\controller\CouponTransController.class
com\hackathon\rocky\dao\PointTransactionRepository.class
com\hackathon\rocky\service\ARLocationService.class
com\hackathon\rocky\controller\ARTransactionController.class
com\hackathon\rocky\dto\ARTransactionDto.class
com\hackathon\rocky\dto\CouponTransactionDto.class
com\hackathon\rocky\controller\ARLocationController.class
com\hackathon\rocky\dto\ResponseDTO.class
com\hackathon\rocky\service\ARTransactionService.class
com\hackathon\rocky\controller\ContractTransController.class
com\hackathon\rocky\service\Impl\CouponTypeServiceImpl.class
com\hackathon\rocky\dao\CouponTypeRepository.class
com\hackathon\rocky\service\CouponTypeService.class
com\hackathon\rocky\controller\PartnerController.class
com\hackathon\rocky\service\Impl\CouponTransactionImpl.class
com\hackathon\rocky\dto\UserDto.class
com\hackathon\rocky\entity\Partner.class
com\hackathon\rocky\dto\UserHistoryDto.class
com\hackathon\rocky\dao\ARTransactionRepository.class
com\hackathon\rocky\dao\CouponRepository.class
com\hackathon\rocky\dao\UserRepository.class
com\hackathon\rocky\dto\PointTransactionDto.class
